Getting Started With stacks
…
tree_frogs_data_st
#> # A data stack with 3 model definitions and 11 candidate members:
#> #   knn_res: 4 model configurations
#> #   lin_reg_res: 1 model configuration
#> #   svm_res: 6 model configurations
#> # Outcome: latency (numeric)

As mentioned before, under the hood, a data_stack object
is really just a tibble with some extra attributes. Checking out the
actual data:

as_tibble(tree_frogs_data_st)
#> # A tibble: 429 × 12
#>    latency knn_res_1_1 knn_res…¹ knn_r…² knn_r…³ lin_r…⁴ svm_r…⁵ svm_r…⁶ svm_r…⁷
#>      <dbl>       <dbl>     <dbl>   <dbl>   <dbl>   <dbl>   <dbl>   <dbl>   <dbl>
#>  1     142        76.5      67.8    83.2    83.0   114.     71.0    71.0    84.6
#>  2      79        74.3      71.0    64.2    63.9    78.6    72.5    72.5    71.4
#>  3      50        75.0      71.4    64.9    64.3    81.5    71.0    71.0    70.6
#>  4      68        47.9      49.7    54.0    54.0    78.6    71.1    71.1    70.4
#>  5      64        60.9      53.1    48.4    48.3    36.5    71.0    71.0    51.5
#>  6      52       207.      168.    129.    124.    124.     71.1    71.1    92.1
#>  7      39        30.8      29.1    32.7    33.0    35.2    72.5    72.5    50.6
#>  8      46        32.3      31.1    35.0    34.6    37.1    72.5    72.5    51.2
#>  9     137        75.9      78.8    90.4    90.6    78.8    71.1    71.1    70.6
#> 10      73        67.7      73.6    67.9    67.4    38.8    72.5    72.5    51.7
#> # … with 419 more rows, 3 more variables: svm_res_1_5 <dbl>, svm_res_1_2 <dbl>,
#> #   svm_res_1_6 <dbl>, and abbreviated variable names ¹​knn_res_1_2,
#> #   ²​knn_res_1_3, ³​knn_res_1_4, ⁴​lin_reg_res_1_1, ⁵​svm_res_1_1, ⁶​svm_res_1_4,
#> #   ⁷​svm_res_1_3
…
