Classification Models With stacks
…
There are multiple facets since the ensemble members can have
different effects on different classes.

To identify which model configurations were assigned what stacking
coefficients, we can make use of the collect_parameters()
function:

collect_parameters(tree_frogs_model_st, "rand_forest_res")
#> # A tibble: 60 × 6
#>    member                mtry min_n class terms                            coef
#>    <chr>                <int> <int> <chr> <chr>                           <dbl>
#>  1 rand_forest_res_1_01     1    26 low   .pred_mid_rand_forest_res_1_01   18.6
#>  2 rand_forest_res_1_01     1    26 low   .pred_full_rand_forest_res_1_01   0  
#>  3 rand_forest_res_1_01     1    26 mid   .pred_mid_rand_forest_res_1_01    0  
#>  4 rand_forest_res_1_01     1    26 mid   .pred_full_rand_forest_res_1_01   0  
#>  5 rand_forest_res_1_01     1    26 full  .pred_mid_rand_forest_res_1_01    0  
#>  6 rand_forest_res_1_01     1    26 full  .pred_full_rand_forest_res_1_01   0  
#>  7 rand_forest_res_1_02     2    33 low   .pred_mid_rand_forest_res_1_02    0  
#>  8 rand_forest_res_1_02     2    33 low   .pred_full_rand_forest_res_1_02   0  
#>  9 rand_forest_res_1_02     2    33 mid   .pred_mid_rand_forest_res_1_02    0  
#> 10 rand_forest_res_1_02     2    33 mid   .pred_full_rand_forest_res_1_02   0  
#> # ℹ 50 more rows
…
tree_frogs_pred <-
  tree_frogs_test %>%
  select(reflex) %>%
  bind_cols(
    predict(
      tree_frogs_model_st,
      tree_frogs_test,
      type = "class",
      members = TRUE
      )
    )

tree_frogs_pred
#> # A tibble: 303 × 14
#>    reflex .pred_class .pred_class_rand_forest_res_1_01 .pred_class_rand_forest…¹
#>    <fct>  <fct>       <fct>                            <fct>                    
#>  1 full   full        full                             full                     
#>  2 mid    mid         low                              mid                      
#>  3 mid    mid         mid                              mid                      
#>  4 mid    mid         low                              low                      
#>  5 full   full        full                             full                     
#>  6 full   full        full                             full                     
#>  7 full   full        full                             full                     
#>  8 full   full        full                             full                     
#>  9 full   full        full                             full                     
#> 10 full   full        full                             full                     
#> # ℹ 293 more rows
#> # ℹ abbreviated name: ¹​.pred_class_rand_forest_res_1_07
#> # ℹ 10 more variables: .pred_class_nnet_res_1_06 <fct>,
#> #   .pred_class_nnet_res_1_03 <fct>, .pred_class_nnet_res_1_10 <fct>,
#> #   .pred_class_nnet_res_1_01 <fct>, .pred_class_nnet_res_1_05 <fct>,
#> #   .pred_class_rand_forest_res_1_08 <fct>, .pred_class_nnet_res_1_08 <fct>,
#> #   .pred_class_nnet_res_1_07 <fct>, .pred_class_nnet_res_1_04 <fct>, …
…
